<svg width="20" height="20" viewBox="0 0 20 20" fill="none" xmlns="http://www.w3.org/2000/svg">
<path d="M7.50004 14.1667H5.83337V8.33333H7.50004V14.1667ZM10.8334 14.1667H9.16671V5.83333H10.8334V14.1667ZM14.1667 14.1667H12.5V10.8333H14.1667V14.1667ZM16.25 15.9167H3.75004V4.16667H16.25V15.9167ZM16.25 2.5H3.75004C2.83337 2.5 2.08337 3.25 2.08337 4.16667V15.8333C2.08337 16.75 2.83337 17.5 3.75004 17.5H16.25C17.1667 17.5 17.9167 16.75 17.9167 15.8333V4.16667C17.9167 3.25 17.1667 2.5 16.25 2.5Z" fill="#4B4B4B"/>
</svg>
